[
  { 
    "url": "/messages/",
    "method": "GET",
    "params": {
    },
    "url_params": [
    ]
  },
  { 
    "url": "/login/",
    "method": "POST",
    "params": {
      "username": "admin",
      "password": "123"
    },
    "url_params": [
    ]
  },
  { 
    "url": "/devices/%s/%s/",
    "method": "GET",
    "params": {
    },
    "url_params": [
      "1",
      "2"
    ]
  }
]